…
***
## Code & Data

The reference data of the tropical cyclons is provided in the [EBTD database](http://rammb.cira.colostate.edu/research/tropical_cyclones/tc_extended_best_track_dataset/). The `ike` data frame constitutes a subset of the aforementioned database and is provided along with this package. The format of the data frame is different from the raw data and is strictly required by the `{stat/geom}_hurricane` functions. For convenience the `ike` data frame is shown below:






```
#> # A tibble: 174 x 9
#>    storm_id date     latitude longitude wind_speed    ne    nw    se    sw
#>    <chr>    <chr>       <dbl>     <dbl> <chr>      <int> <int> <int> <int>
#>  1 Ike-2008 2008-09…     17.2     -37.0 34             0     0     0     0
#>  2 Ike-2008 2008-09…     17.2     -37.0 50             0     0     0     0
#>  3 Ike-2008 2008-09…     17.2     -37.0 64             0     0     0     0
#>  4 Ike-2008 2008-09…     17.3     -38.4 34           120    60    75     0
#>  5 Ike-2008 2008-09…     17.3     -38.4 50             0     0     0     0
#>  6 Ike-2008 2008-09…     17.3     -38.4 64             0     0     0     0
#>  7 Ike-2008 2008-09…     17.5     -39.9 34           130    75   110     0
#>  8 Ike-2008 2008-09…     17.5     -39.9 50             0     0     0     0
#>  9 Ike-2008 2008-09…     17.5     -39.9 64             0     0     0     0
#> 10 Ike-2008 2008-09…     17.8     -41.3 34           140    90   120     0
#> # ... with 164 more rows
```
…
